^C:\USERS\АДМИНИСТРАТОР\SOURCE\REPOS\SKILLBOXUEWITHVS\HOMETASK_17\VECTOR3D.CPP
/c /ZI /JMC /nologo /W3 /WX- /diagnostics:column /sdl /Od /Oy- /D WIN32 /D _DEBUG /D _CONSOLE /D _UNICODE /D UNICODE /Gm- /EHsc /RTC1 /MDd /GS /fp:precise /permissive- /Zc:wchar_t /Zc:forScope /Zc:inline /Fo"DEBUG\\" /Fd"DEBUG\VC142.PDB" /Gd /TP /analyze- /FC C:\USERS\АДМИНИСТРАТОР\SOURCE\REPOS\SKILLBOXUEWITHVS\HOMETASK_17\VECTOR3D.CPP
^C:\USERS\АДМИНИСТРАТОР\SOURCE\REPOS\SKILLBOXUEWITHVS\HOMETASK_17\POINT3D.CPP
/c /ZI /JMC /nologo /W3 /WX- /diagnostics:column /sdl /Od /Oy- /D WIN32 /D _DEBUG /D _CONSOLE /D _UNICODE /D UNICODE /Gm- /EHsc /RTC1 /MDd /GS /fp:precise /permissive- /Zc:wchar_t /Zc:forScope /Zc:inline /Fo"DEBUG\\" /Fd"DEBUG\VC142.PDB" /Gd /TP /analyze- /FC C:\USERS\АДМИНИСТРАТОР\SOURCE\REPOS\SKILLBOXUEWITHVS\HOMETASK_17\POINT3D.CPP
^C:\USERS\АДМИНИСТРАТОР\SOURCE\REPOS\SKILLBOXUEWITHVS\HOMETASK_17\HOMETASK_17.CPP
/c /ZI /JMC /nologo /W3 /WX- /diagnostics:column /sdl /Od /Oy- /D WIN32 /D _DEBUG /D _CONSOLE /D _UNICODE /D UNICODE /Gm- /EHsc /RTC1 /MDd /GS /fp:precise /permissive- /Zc:wchar_t /Zc:forScope /Zc:inline /Fo"DEBUG\\" /Fd"DEBUG\VC142.PDB" /Gd /TP /analyze- /FC C:\USERS\АДМИНИСТРАТОР\SOURCE\REPOS\SKILLBOXUEWITHVS\HOMETASK_17\HOMETASK_17.CPP
