^C:\USERS\АДМИНИСТРАТОР\SOURCE\REPOS\SKILLBOXUEWITHVS\HOMETASK_17\DEBUG\HOMETASK_17.OBJ|C:\USERS\АДМИНИСТРАТОР\SOURCE\REPOS\SKILLBOXUEWITHVS\HOMETASK_17\DEBUG\POINT3D.OBJ|C:\USERS\АДМИНИСТРАТОР\SOURCE\REPOS\SKILLBOXUEWITHVS\HOMETASK_17\DEBUG\VECTOR3D.OBJ
/OUT:"C:\USERS\АДМИНИСТРАТОР\SOURCE\REPOS\SKILLBOXUEWITHVS\HOMETASK_17\DEBUG\HOMETASK_17.EXE" /INCREMENTAL /NOLOGO KERNEL32.LIB USER32.LIB GDI32.LIB WINSPOOL.LIB COMDLG32.LIB ADVAPI32.LIB SHELL32.LIB OLE32.LIB OLEAUT32.LIB UUID.LIB ODBC32.LIB ODBCCP32.LIB /MANIFEST /MANIFESTUAC:"level='asInvoker' uiAccess='false'" /manifest:embed /DEBUG:FASTLINK /PDB:"C:\USERS\АДМИНИСТРАТОР\SOURCE\REPOS\SKILLBOXUEWITHVS\HOMETASK_17\DEBUG\HOMETASK_17.PDB" /SUBSYSTEM:CONSOLE /TLBID:1 /DYNAMICBASE /NXCOMPAT /IMPLIB:"C:\USERS\АДМИНИСТРАТОР\SOURCE\REPOS\SKILLBOXUEWITHVS\HOMETASK_17\DEBUG\HOMETASK_17.LIB" /MACHINE:X86 DEBUG\HOMETASK_17.OBJ
DEBUG\POINT3D.OBJ
DEBUG\VECTOR3D.OBJ
